Library\Bee\artifacts\movedfrom\Unity.Mathematics.ref.dll_1500159514775694681.movedfrom
Library\Bee\artifacts\movedfrom\Unity.RenderPipeline.Universal.ShaderLibrary.ref.dll_4582855796600571760.movedfrom
Library\Bee\artifacts\movedfrom\Unity.RenderPipelines.Core.Runtime.ref.dll_14599016120300754895.movedfrom
Library\Bee\artifacts\movedfrom\UnityEngine.UI.ref.dll_18079379552747940837.movedfrom
Library\Bee\artifacts\movedfrom\UnityEngine.AccessibilityModule.dll_309967239461645676.movedfrom
Library\Bee\artifacts\movedfrom\UnityEngine.AIModule.dll_8898976466416052046.movedfrom
Library\Bee\artifacts\movedfrom\UnityEngine.AndroidJNIModule.dll_16453208957022802956.movedfrom
Library\Bee\artifacts\movedfrom\UnityEngine.AnimationModule.dll_11783312793521377554.movedfrom
Library\Bee\artifacts\movedfrom\UnityEngine.ARModule.dll_3815192055305963031.movedfrom
Library\Bee\artifacts\movedfrom\UnityEngine.AssetBundleModule.dll_6847534220796305024.movedfrom
Library\Bee\artifacts\movedfrom\UnityEngine.AudioModule.dll_2583476251307285892.movedfrom
Library\Bee\artifacts\movedfrom\UnityEngine.ClothModule.dll_9998755270243712104.movedfrom
Library\Bee\artifacts\movedfrom\UnityEngine.ClusterInputModule.dll_7133880339315112630.movedfrom
Library\Bee\artifacts\movedfrom\UnityEngine.ClusterRendererModule.dll_8726039999573674539.movedfrom
Library\Bee\artifacts\movedfrom\UnityEngine.CoreModule.dll_2412877423891318629.movedfrom
Library\Bee\artifacts\movedfrom\UnityEngine.CrashReportingModule.dll_9248850797530623005.movedfrom
Library\Bee\artifacts\movedfrom\UnityEngine.DirectorModule.dll_8497809938493376194.movedfrom
Library\Bee\artifacts\movedfrom\UnityEngine.dll_9655677920433218848.movedfrom
Library\Bee\artifacts\movedfrom\UnityEngine.DSPGraphModule.dll_8881004487314986979.movedfrom
Library\Bee\artifacts\movedfrom\UnityEngine.GameCenterModule.dll_1054638884968695037.movedfrom
Library\Bee\artifacts\movedfrom\UnityEngine.GIModule.dll_1421955507869519720.movedfrom
Library\Bee\artifacts\movedfrom\UnityEngine.GridModule.dll_18369443088066059612.movedfrom
Library\Bee\artifacts\movedfrom\UnityEngine.HotReloadModule.dll_2652473481389370516.movedfrom
Library\Bee\artifacts\movedfrom\UnityEngine.ImageConversionModule.dll_16504316965558747679.movedfrom
Library\Bee\artifacts\movedfrom\UnityEngine.IMGUIModule.dll_6645616903979381093.movedfrom
Library\Bee\artifacts\movedfrom\UnityEngine.InputLegacyModule.dll_17315336947901060209.movedfrom
Library\Bee\artifacts\movedfrom\UnityEngine.InputModule.dll_9966502976162644520.movedfrom
Library\Bee\artifacts\movedfrom\UnityEngine.JSONSerializeModule.dll_7234121082345229814.movedfrom
Library\Bee\artifacts\movedfrom\UnityEngine.LocalizationModule.dll_11623065723974266287.movedfrom
Library\Bee\artifacts\movedfrom\UnityEngine.ParticleSystemModule.dll_15234778244872419243.movedfrom
Library\Bee\artifacts\movedfrom\UnityEngine.PerformanceReportingModule.dll_1454429695156699428.movedfrom
Library\Bee\artifacts\movedfrom\UnityEngine.Physics2DModule.dll_17306397128333281447.movedfrom
Library\Bee\artifacts\movedfrom\UnityEngine.PhysicsModule.dll_14095179063330365653.movedfrom
Library\Bee\artifacts\movedfrom\UnityEngine.ProfilerModule.dll_12120455795423317455.movedfrom
Library\Bee\artifacts\movedfrom\UnityEngine.RuntimeInitializeOnLoadManagerInitializerModule.dll_16196549717109933936.movedfrom
Library\Bee\artifacts\movedfrom\UnityEngine.ScreenCaptureModule.dll_9100772439998478936.movedfrom
Library\Bee\artifacts\movedfrom\UnityEngine.SharedInternalsModule.dll_7574029466008223087.movedfrom
Library\Bee\artifacts\movedfrom\UnityEngine.SpriteMaskModule.dll_17856569158142990967.movedfrom
Library\Bee\artifacts\movedfrom\UnityEngine.SpriteShapeModule.dll_8676327012103050890.movedfrom
Library\Bee\artifacts\movedfrom\UnityEngine.StreamingModule.dll_6348854872379492432.movedfrom
Library\Bee\artifacts\movedfrom\UnityEngine.SubstanceModule.dll_3802936013060507230.movedfrom
Library\Bee\artifacts\movedfrom\UnityEngine.SubsystemsModule.dll_7096737793683423882.movedfrom
Library\Bee\artifacts\movedfrom\UnityEngine.TerrainModule.dll_15988515472648874435.movedfrom
Library\Bee\artifacts\movedfrom\UnityEngine.TerrainPhysicsModule.dll_15269303816646505016.movedfrom
Library\Bee\artifacts\movedfrom\UnityEngine.TextCoreModule.dll_1056407508362262226.movedfrom
Library\Bee\artifacts\movedfrom\UnityEngine.TextRenderingModule.dll_12072992109435402829.movedfrom
Library\Bee\artifacts\movedfrom\UnityEngine.TilemapModule.dll_8997916755209718476.movedfrom
Library\Bee\artifacts\movedfrom\UnityEngine.TLSModule.dll_1765756668821304425.movedfrom
Library\Bee\artifacts\movedfrom\UnityEngine.UIElementsModule.dll_7402526717748919937.movedfrom
Library\Bee\artifacts\movedfrom\UnityEngine.UIElementsNativeModule.dll_18427751388312884536.movedfrom
Library\Bee\artifacts\movedfrom\UnityEngine.UIModule.dll_8571232036207013114.movedfrom
Library\Bee\artifacts\movedfrom\UnityEngine.UmbraModule.dll_11434364640444467447.movedfrom
Library\Bee\artifacts\movedfrom\UnityEngine.UNETModule.dll_12980090066908544222.movedfrom
Library\Bee\artifacts\movedfrom\UnityEngine.UnityAnalyticsModule.dll_17513442192824175015.movedfrom
Library\Bee\artifacts\movedfrom\UnityEngine.UnityConnectModule.dll_15043062173742229659.movedfrom
Library\Bee\artifacts\movedfrom\UnityEngine.UnityCurlModule.dll_15466308622509425407.movedfrom
Library\Bee\artifacts\movedfrom\UnityEngine.UnityTestProtocolModule.dll_1548255355020695277.movedfrom
Library\Bee\artifacts\movedfrom\UnityEngine.UnityWebRequestAssetBundleModule.dll_10474285132332405176.movedfrom
Library\Bee\artifacts\movedfrom\UnityEngine.UnityWebRequestAudioModule.dll_10100307295004199868.movedfrom
Library\Bee\artifacts\movedfrom\UnityEngine.UnityWebRequestModule.dll_17774059012410154142.movedfrom
Library\Bee\artifacts\movedfrom\UnityEngine.UnityWebRequestTextureModule.dll_4933591693056979217.movedfrom
Library\Bee\artifacts\movedfrom\UnityEngine.UnityWebRequestWWWModule.dll_9739845001878132941.movedfrom
Library\Bee\artifacts\movedfrom\UnityEngine.VehiclesModule.dll_17127544100394391133.movedfrom
Library\Bee\artifacts\movedfrom\UnityEngine.VFXModule.dll_11051783752317165014.movedfrom
Library\Bee\artifacts\movedfrom\UnityEngine.VideoModule.dll_5252286099566770473.movedfrom
Library\Bee\artifacts\movedfrom\UnityEngine.VirtualTexturingModule.dll_2614685584882947523.movedfrom
Library\Bee\artifacts\movedfrom\UnityEngine.VRModule.dll_14539106847812203122.movedfrom
Library\Bee\artifacts\movedfrom\UnityEngine.WindModule.dll_10937869535831688654.movedfrom
Library\Bee\artifacts\movedfrom\UnityEngine.XRModule.dll_18195681219533209552.movedfrom
Library\Bee\artifacts\movedfrom\Unity.VisualScripting.Antlr3.Runtime.dll_4599606409437686182.movedfrom