Library\Bee\artifacts\movedfrom\UnityEditor.Graphs.dll_16084273199731075782.movedfrom
Library\Bee\artifacts\movedfrom\UnityEditor.CoreModule.dll_12379048217209304212.movedfrom
Library\Bee\artifacts\movedfrom\UnityEditor.DeviceSimulatorModule.dll_12306648600064461165.movedfrom
Library\Bee\artifacts\movedfrom\UnityEditor.dll_11646166699375169729.movedfrom
Library\Bee\artifacts\movedfrom\UnityEditor.GraphViewModule.dll_3927665134111652594.movedfrom
Library\Bee\artifacts\movedfrom\UnityEditor.PackageManagerUIModule.dll_3127794177623322864.movedfrom
Library\Bee\artifacts\movedfrom\UnityEditor.QuickSearchModule.dll_15045527344796013780.movedfrom
Library\Bee\artifacts\movedfrom\UnityEditor.SceneTemplateModule.dll_16694845933855372757.movedfrom
Library\Bee\artifacts\movedfrom\UnityEditor.UIBuilderModule.dll_10018973967825630246.movedfrom
Library\Bee\artifacts\movedfrom\UnityEditor.UIElementsModule.dll_9393191123674989392.movedfrom
Library\Bee\artifacts\movedfrom\UnityEditor.UIElementsSamplesModule.dll_17704171327061410589.movedfrom
Library\Bee\artifacts\movedfrom\UnityEditor.UIServiceModule.dll_14122335294830756928.movedfrom
Library\Bee\artifacts\movedfrom\UnityEditor.UnityConnectModule.dll_10286200906223217994.movedfrom
Library\Bee\artifacts\movedfrom\UnityEngine.AccessibilityModule.dll_1897543229491453298.movedfrom
Library\Bee\artifacts\movedfrom\UnityEngine.AIModule.dll_14616222215921498216.movedfrom
Library\Bee\artifacts\movedfrom\UnityEngine.AndroidJNIModule.dll_46226091230065190.movedfrom
Library\Bee\artifacts\movedfrom\UnityEngine.AnimationModule.dll_362358119021825944.movedfrom
Library\Bee\artifacts\movedfrom\UnityEngine.ARModule.dll_9532437804811409201.movedfrom
Library\Bee\artifacts\movedfrom\UnityEngine.AssetBundleModule.dll_1492281753520622022.movedfrom
Library\Bee\artifacts\movedfrom\UnityEngine.AudioModule.dll_2827845788432730762.movedfrom
Library\Bee\artifacts\movedfrom\UnityEngine.ClothModule.dll_10243124807369156974.movedfrom
Library\Bee\artifacts\movedfrom\UnityEngine.ClusterInputModule.dll_1034810107730608144.movedfrom
Library\Bee\artifacts\movedfrom\UnityEngine.ClusterRendererModule.dll_12715564058709956337.movedfrom
Library\Bee\artifacts\movedfrom\UnityEngine.CoreModule.dll_14910303559751229375.movedfrom
Library\Bee\artifacts\movedfrom\UnityEngine.CrashReportingModule.dll_13497202278223659191.movedfrom
Library\Bee\artifacts\movedfrom\UnityEngine.DirectorModule.dll_12824263769216361884.movedfrom
Library\Bee\artifacts\movedfrom\UnityEngine.dll_15295286192563625382.movedfrom
Library\Bee\artifacts\movedfrom\UnityEngine.DSPGraphModule.dll_13207458318037972669.movedfrom
Library\Bee\artifacts\movedfrom\UnityEngine.GameCenterModule.dll_3094400092885508887.movedfrom
Library\Bee\artifacts\movedfrom\UnityEngine.GIModule.dll_7139201257374965890.movedfrom
Library\Bee\artifacts\movedfrom\UnityEngine.GridModule.dll_12420125150216418742.movedfrom
Library\Bee\artifacts\movedfrom\UnityEngine.HotReloadModule.dll_9678262880599370522.movedfrom
Library\Bee\artifacts\movedfrom\UnityEngine.ImageConversionModule.dll_2047096950985477861.movedfrom
Library\Bee\artifacts\movedfrom\UnityEngine.IMGUIModule.dll_6889986441104825963.movedfrom
Library\Bee\artifacts\movedfrom\UnityEngine.InputLegacyModule.dll_11960084480625377207.movedfrom
Library\Bee\artifacts\movedfrom\UnityEngine.InputModule.dll_10210872513288089390.movedfrom
Library\Bee\artifacts\movedfrom\UnityEngine.JSONSerializeModule.dll_8821697072375037436.movedfrom
Library\Bee\artifacts\movedfrom\UnityEngine.LocalizationModule.dll_5523995492389761801.movedfrom
Library\Bee\artifacts\movedfrom\UnityEngine.ParticleSystemModule.dll_1036385651855903813.movedfrom
Library\Bee\artifacts\movedfrom\UnityEngine.PerformanceReportingModule.dll_4860293576855122814.movedfrom
Library\Bee\artifacts\movedfrom\UnityEngine.Physics2DModule.dll_5885442453833729837.movedfrom
Library\Bee\artifacts\movedfrom\UnityEngine.PhysicsModule.dll_13616115321925978779.movedfrom
Library\Bee\artifacts\movedfrom\UnityEngine.ProfilerModule.dll_16446909626146303145.movedfrom
Library\Bee\artifacts\movedfrom\UnityEngine.RuntimeInitializeOnLoadManagerInitializerModule.dll_7010521801932837366.movedfrom
Library\Bee\artifacts\movedfrom\UnityEngine.ScreenCaptureModule.dll_10688348430028286558.movedfrom
Library\Bee\artifacts\movedfrom\UnityEngine.SharedInternalsModule.dll_11563553525144504885.movedfrom
Library\Bee\artifacts\movedfrom\UnityEngine.SpriteMaskModule.dll_1449586292350253201.movedfrom
Library\Bee\artifacts\movedfrom\UnityEngine.SpriteShapeModule.dll_3321074544827367888.movedfrom
Library\Bee\artifacts\movedfrom\UnityEngine.StreamingModule.dll_13374644271589492438.movedfrom
Library\Bee\artifacts\movedfrom\UnityEngine.SubstanceModule.dll_10828725412270507236.movedfrom
Library\Bee\artifacts\movedfrom\UnityEngine.SubsystemsModule.dll_9136499001600237732.movedfrom
Library\Bee\artifacts\movedfrom\UnityEngine.TerrainModule.dll_15509451731244487561.movedfrom
Library\Bee\artifacts\movedfrom\UnityEngine.TerrainPhysicsModule.dll_1070911223629989586.movedfrom
Library\Bee\artifacts\movedfrom\UnityEngine.TextCoreModule.dll_5382861339085247916.movedfrom
Library\Bee\artifacts\movedfrom\UnityEngine.TextRenderingModule.dll_13660568099465210451.movedfrom
Library\Bee\artifacts\movedfrom\UnityEngine.TilemapModule.dll_8518853013805331602.movedfrom
Library\Bee\artifacts\movedfrom\UnityEngine.TLSModule.dll_5149198350011104431.movedfrom
Library\Bee\artifacts\movedfrom\UnityEngine.UIElementsModule.dll_9442287925665733787.movedfrom
Library\Bee\artifacts\movedfrom\UnityEngine.UIElementsNativeModule.dll_8494313162558824722.movedfrom
Library\Bee\artifacts\movedfrom\UnityEngine.UIModule.dll_14288477785712459284.movedfrom
Library\Bee\artifacts\movedfrom\UnityEngine.UmbraModule.dll_11678734177569912317.movedfrom
Library\Bee\artifacts\movedfrom\UnityEngine.UNETModule.dll_7030772129058903352.movedfrom
Library\Bee\artifacts\movedfrom\UnityEngine.UnityAnalyticsModule.dll_3315049599807659585.movedfrom
Library\Bee\artifacts\movedfrom\UnityEngine.UnityConnectModule.dll_8943991942157725173.movedfrom
Library\Bee\artifacts\movedfrom\UnityEngine.UnityCurlModule.dll_4045353948009873797.movedfrom
Library\Bee\artifacts\movedfrom\UnityEngine.UnityTestProtocolModule.dll_12787003536422606963.movedfrom
Library\Bee\artifacts\movedfrom\UnityEngine.UnityWebRequestAssetBundleModule.dll_3721862030628850130.movedfrom
Library\Bee\artifacts\movedfrom\UnityEngine.UnityWebRequestAudioModule.dll_13506171176702623254.movedfrom
Library\Bee\artifacts\movedfrom\UnityEngine.UnityWebRequestModule.dll_3316838997836884324.movedfrom
Library\Bee\artifacts\movedfrom\UnityEngine.UnityWebRequestTextureModule.dll_12732761212575650475.movedfrom
Library\Bee\artifacts\movedfrom\UnityEngine.UnityWebRequestWWWModule.dll_8820363796543783911.movedfrom
Library\Bee\artifacts\movedfrom\UnityEngine.VehiclesModule.dll_3007253857407825207.movedfrom
Library\Bee\artifacts\movedfrom\UnityEngine.VFXModule.dll_14435225433506965020.movedfrom
Library\Bee\artifacts\movedfrom\UnityEngine.VideoModule.dll_5496655636692215343.movedfrom
Library\Bee\artifacts\movedfrom\UnityEngine.VirtualTexturingModule.dll_11127991432838439325.movedfrom
Library\Bee\artifacts\movedfrom\UnityEngine.VRModule.dll_1809608523608097676.movedfrom
Library\Bee\artifacts\movedfrom\UnityEngine.WindModule.dll_4988551597982047784.movedfrom
Library\Bee\artifacts\movedfrom\UnityEngine.XRModule.dll_5466182895329104106.movedfrom
Library\Bee\artifacts\movedfrom\UnityEditor.WindowsStandalone.Extensions.dll_7580221052522019404.movedfrom